"packing_no","reference_no","courier_code","courier_name","delivery_method","delivery_service","status","delivery_list","delivery_date"
"24426168553570","[""MCI-439020029559694696-DEV""]","REALS-SAP","","PICKUP","REG","PROCESSED","[]","2021-11-23 15:52:29"
"24427181015893","[""MCI-439019969777306949-DEV""]","others","JNE","pickup","REG","PROCESSED","[]","2021-11-23 16:07:14"
"24427182167945","[""MCI-438997190370811673-DEV""]","others","TIKI","method","REG","ACTIVE","[]",""
"24427182330649","[""MCI-438980989850376016-DEV""]","REALS-SAP","SAP","PICKUP","REG","PROCESSED","[]","2021-11-23 16:11:47"
"24466341131860","[""MCI-7047031712002222933-DEV-2""]","REALS-SAP","SAP","PICKUP","REG","PROCESSED","[]","2021-12-30 11:45:51"
"24466341131824","[]","others","SiCepat","DROP","REG","ACTIVE","[]",""
"1529302315876","[""MCI-7044823180686031412-DEV-2""]","others","Internal courier","DROP","Instant","PROCESSED","[]","2022-01-03 12:08:58"
