"username","password"
"100017109","'O17VK0"
"100107743","'OFRS35"
"100109479","'AL5GQK"
"100108768","'655OCY"
"100013987","'VJEALQ"
"100050127","'BYLIKP"
"100131933","'D5J66U"
"100007750","'L56AZ7"
"100101710-upfront","'2RJB2E"
"100008775","'E8ABKZ"
"100107689","'QIK3PI"
"100107863","'DZ88KK"
"100050075","'G557UA"
"100084085","'VOL5DI"
"100109066","'01FBBX"
"100014941","'9N0EMX"
"100109199","'3MGJFZ"
"100014954","'5XISK4"
"100109460","'2Q2YQD"
"100109487","'0ISL6I"
"100029401","'9BDO78"
"100014960","'6TNCVG"
"100107267","'M806P1"
"100017096","'7HR840"
"100057382","'5MHN4T"
"100015825","'JGO5B1"
"100107735","'L3I7XQ"
"100107741","'T8H1JA"
"100015036","'M4HWUF"
"100060121","'OAOH2T"
"100015107","'F72GWK"
"100015997","'3QAO6L"
"100108005","'KVF8LN"
"100108018","'X76KUJ"
"100015129","'44ERKQ"
"100108379","'NFTKK7"
"100015041","'UX4DF6"
"100015074","'EI17V5"
"100108811","'G4FSJT"
"100016155","'W51MP5"
"100062906","'FGB9I5"
"100029310","'UTG7IB"
"100143213","'I2Y1TC"
"100107324","'LWNF8K"
"100015307","'GS72RL"
"100017173","'NELIVF"
"100015309","'FHCGVX"
"100107573","'T6I02Q"
"100015323","'T8RUTZ"
"100107871","'U9ITRS"
"100108155","'EUGTN0"
"100017332","'COUVH8"
"100015334","'Y2LQ6Q"
"100108370","'1INTT8"
"100015344","'9PME05"
"100108589","'1D4HSJ"
"100108614","'7JYBFS"
"100050369","'CWPYAF"
"100108907","'R4NWZ5"
"100108966","'PZ311A"
"100015971","'9PNHKD"
"100015327","'DQA65D"
"100109353","'9804CH"
"100015361","'272EU3"
"100050392","'4HX0LN"
"100015947","'NGNJ61"
"100050393","'H7TX0O"
"100109107","'OX6YWY"
"100017084","'35ET17"
"100109414","'TI7MFA"
"100109579","'MC4TEF"
"100017278","'V2FAOL"
"100016089","'0QRGS4"
"100050258","'T4Z62B"
"100074844","'1X43V7"
"100073021","'IYWFX9"
"100107643","'FGIC2O"
"100050272","'LUCPFM"
"100107729","'XI0JRL"
"100017284","'XP4BUY"
"100017210","'POEODF"
"100015937","'LZQSEH"
"100017157","'FAZLRA"
"100015781","'6387SO"
"100029189","'3G5SDE"
"100015735","'B4N59Q"
"100108493","'3KE3X7"
"100017297","'KH76Q7"
"100015769","'WV83BM"
"100029190","'LHZLC6"
"100017302","'CAK526"
"100108700","'GES9GX"
"100108730","'XJZ3DA"
"100029229","'H11GXG"
"100108850","'7M72F5"
"100108856","'WGWJHJ"
"100108870","'61TPGS"
"100108903","'J8LRTO"
"100017395","'CY4K99"
"100108984","'3OJ44U"
