"username","password"
"100017109","'RA9JEA"
"100107743","'1QWGMP"
"100109479","'DQEFDR"
"100108768","'4ILL1F"
"100013987","'M1PQ05"
"100050127","'Z77K5W"
"100131933","'AS5LN8"
"100007750","'RMMJCP"
"100101710-upfront","'4XLCCU"
"100008775","'JX30GN"
"100107689","'QXWHZ0"
"100107863","'5SWKMG"
"100050075","'NIP33V"
"100084085","'Z7YPIO"
"100109066","'GAFPHR"
"100014941","'LEE5LW"
"100109199","'D3LWY1"
"100014954","'JNXOZX"
"100109460","'93FKLZ"
"100109487","'SLY9AH"
"100029401","'9663D0"
"100014960","'4IT1YS"
"100107267","'0G9V3M"
"100017096","'YO3MHL"
"100057382","'DCRI9M"
"100015825","'3132YI"
"100107735","'NV33YF"
"100107741","'XV2BU8"
"100015036","'9PXLN6"
"100060121","'SQ54NJ"
"100015107","'C47DT0"
"100015997","'STN08V"
"100108005","'Q5BCVT"
"100108018","'CT3L9I"
"100015129","'GDY088"
"100108379","'UBWGV9"
"100015041","'R3IJ4J"
"100015074","'R5MVPG"
"100108811","'T68S7S"
"100016155","'QT30NJ"
"100062906","'XPLYPU"
"100029310","'VIGWN5"
"100143213","'KFDIHS"
"100107324","'CVI1J1"
"100015307","'SX4YGD"
"100017173","'Z7K947"
"100015309","'5JVTIN"
"100107573","'GUBRGE"
"100015323","'W8EZCC"
"100107871","'KVMW1W"
"100108155","'9R6V6H"
"100017332","'EMFPBW"
"100015334","'3ZG8B5"
"100108370","'PCS6CS"
"100015344","'0Y7FEI"
"100108589","'HX32YX"
"100108614","'V3S2ZE"
"100050369","'X5RITJ"
"100108907","'L4U54A"
"100108966","'BD57F0"
"100015971","'C0MX2M"
"100015327","'ARWV2Z"
"100109353","'K358SR"
"100015361","'1LM14X"
"100050392","'BCNKKP"
"100015947","'CWQAPF"
"100050393","'TOMSFF"
"100109107","'66T80H"
"100017084","'JVHJ1W"
"100109414","'FY7Y9R"
"100109579","'URM0OF"
"100017278","'82JO0E"
"100016089","'AWJPCA"
"100050258","'2WNWOV"
"100074844","'EU8APV"
"100073021","'GM7JMJ"
"100107643","'ILZCYJ"
"100050272","'2DLBUT"
"100107729","'YFMSJG"
"100017284","'4NE1X0"
"100017210","'95S0GN"
"100015937","'J4JCOA"
"100017157","'AEFPUJ"
"100015781","'DQODT7"
"100029189","'88EIN1"
"100015735","'3L0RY6"
"100108493","'XCFVXH"
"100017297","'6ESYD1"
"100015769","'HE45IN"
"100029190","'M05KLZ"
"100017302","'SGAMM0"
"100108700","'25EHG5"
"100108730","'9NDITZ"
"100029229","'71PLYP"
"100108850","'3MKAF8"
"100108856","'IWOZ3V"
"100108870","'U64F18"
"100108903","'CT9E16"
"100017395","'1LT994"
"100108984","'DIJJ6T"
"100017304","'GHR0OB"
"100109021","'GEL3LM"
"100109480","'PQT7K0"
"100109286","'FICUAM"
"100015193","'FR8TH6"
"100050284","'D8HR9L"
"100050332","'E1BP86"
"100050346","'EOEMJW"
"100108190","'I719BY"
"100015888","'EL4ELA"
"100059541","'QS61IT"
"100050324","'HBI23L"
"100108955","'HVW9GI"
"100083996","'941U4A"
"100029245","'E76C48"
"100017253","'IOIDSB"
"100107291","'AXJNM4"
"100107334","'CFG7UR"
"100011714","'20C3JK"
"100107428","'6CE2L2"
"100029108","'JFT2RA"
"100052031","'JCLNGH"
"100107804","'0F73K8"
"100011752","'NHHTAG"
"100107982","'SLHH2P"
"100011865","'7M4BX6"
"100029111","'6CISZP"
"100135150","'N8IEDF"
"100011724","'WY84M9"
"100011786","'ICZ0NM"
"100029099","'LBGY4U"
"100108324","'DP3YO5"
"100012017","'2ZLTWB"
"100011864","'40WQU3"
"100135149","'RMMAQV"
"100011726","'ID1F0A"
"100012015","'Q457CC"
"100011718","'VWM4EG"
"100107199","'S0AZAI"
"100107315","'SV5MGO"
"100049238","'75H4Z2"
"100029219","'2OC6HT"
"100015253","'I97738"
"100016081","'JODMW1"
"100107954","'5YS6Y9"
"100015291","'5LUB71"
"100050248","'A75V3B"
"100108144","'ARELJ4"
"100015270","'ON2BPX"
"100015277","'7UJHBQ"
"100015290","'BJSR3X"
"100013032","'HZNC41"
"100050244","'WNPCZY"
"100013745","'IMTAS2"
"100013246","'7PAITK"
"100013623","'VRSGUD"
"100013465","'VBZU2G"
"100013331","'SPZCWT"
"100107825","'Y8X5OG"
"100059728","'SRK7G2"
"100014025","'N1L2K6"
"100013656","'OU7MJY"
"100011946","'IMX99E"
"100013561","'N54CPA"
"100108349","'6D8530"
"100013501","'WWTCAK"
"100013991","'R1OBI7"
"100108439","'ESHTV6"
"100013780","'3G5HTU"
"100013686","'BOOP2L"
"100011595","'9QWX8F"
"100011927","'D74WLP"
"100029032","'ZX34NU"
"100011177","'OQAQZG"
"100011408","'7988UU"
"100108900","'AIHQ2P"
"100108935","'MUC1J2"
"100048723","'X980CV"
"100011910","'XGELXE"
"100011170","'7EB26R"
"100013887","'44JCUR"
"100109103","'2HMZE9"
"100013720","'TKLPCS"
"100029294","'3HG7TH"
"100014000","'AN3NWY"
"100013447","'KTLY45"
"100011216","'H17DW5"
"100013649","'0HE0W3"
"100013289","'SU8TYN"
"100013264","'9F4FMN"
"100013929","'SEDWS4"
"100107403","'12DF7R"
"100107480","'D0WRID"
"100013647","'WM9SC6"
"100011147","'M0MA9C"
"100029024","'ERU1MQ"
"100013552","'UDK4RN"
"100108060","'ORK4OA"
"100108175","'7QKI0E"
"100108338","'SE6IS3"
"100010989","'JT1PJ5"
"100108702","'OFYEY4"
"100011449","'V2QZ5C"
"100013585","'QTUU5M"
"100013201","'8IFG52"
"100109059","'75KGXC"
"100029577","'Y56F2B"
"100083839","'FJ3DI2"
"100013208","'VEU2BA"
"100109428","'9Q68OC"
"100013345","'G0FL2E"
"100109457","'3LB1MB"
"100013215","'FEJO69"
"100013206","'A3L3W5"
"100013359","'X6E64E"
"100014006","'VWF9HW"
"100107178","'GUDYLU"
"100107191","'7HU1RL"
"100017458","'E7GPVB"
"100017461","'JIA2OA"
"100017410","'C7NRFR"
"100108049","'1INT1H"
"100108740","'YJECLG"
"100014108","'HVQTFT"
"100014632","'Z2CMUG"
"100016507","'D2HQ45"
"100016512","'IMOGH7"
"100107256","'ZAYJMZ"
"100014347","'3AI8XI"
"100017645","'5E5R96"
"100017667","'ADSMPT"
"100108031","'2S68YL"
"100017631","'F0L9NS"
"100017602","'FYQVXN"
"100017676","'0D6NXY"
"100017692","'DE3MNL"
"100017700","'XN3Z21"
"100017677","'AG2PJU"
"100108424","'GJSV38"
"100017669","'NKWYUC"
"100017691","'R76AD2"
"100108653","'31MS3L"
"100017605","'T2FSJT"
"100108898","'ECOX1Z"
"100017621","'L49AU2"
"100030752","'H8YFX4"
"100100704","'X3LN9F"
"100003856","'5E6Z25"
"100048713","'QLEFN2"
"100100162","'6X3N5A"
"100001992","'7Q42W0"
"100002134","'V7IIZR"
"100057747","'NEPLKE"
"100100513","'R24YSO"
"100001456","'HKV9AZ"
"100048710","'B5XZ1P"
"100099803","'2O4MKU"
"100062293","'63OR2Q"
"100107430","'HXGRFA"
"100016713","'F4LR0D"
"100107445","'YHO5V6"
"100107458","'LI0VZ6"
"100016051","'JAURMB"
"100069394","'OJ2P9E"
"100107924","'2JAU4I"
"100107927","'FMPWO6"
"100107975","'LA7A8P"
"100140633","'867IXV"
"100108103","'AIEGSI"
"100108161","'CXY4XQ"
"100016595","'W2V1FN"
"100014619","'7Q1P1N"
"100015615","'KIAVT4"
"100015616","'5O58WR"
"100015649","'AMVRB1"
"100029283","'6RPHGB"
"100049976","'J38CWQ"
"100108556","'VUS2LQ"
"100029420","'AGXA1N"
"100015640","'SLJO5O"
"100015617","'OWU0CO"
"100029569","'TNMX8B"
"100016664","'PCIDMT"
"100015601","'2GB2HV"
"100109032","'OMX3TP"
"100016973","'VCH5KB"
"100016720","'AX831R"
"100109065","'LCW5HX"
"100109069","'PA1XZ3"
"100109200","'X1N690"
"100108429","'UZFLSN"
"100107138","'Y4QKVB"
"100011770","'JN4BXS"
"100011765","'JC4LV4"
"100012476","'3KMWMD"
"100107299","'YI9XL8"
"100108131","'X8XW3K"
"100049747","'GYDVVO"
"100012086","'MWRTJT"
"100012063","'H9P1H4"
"100029132","'81CTVP"
"100050194","'RUPRG5"
"100011757","'IXS69F"
"100049736","'4F6DOC"
"100029144","'AOVM7F"
"100012058","'LZ4E6S"
"100109027","'THYL2Q"
"100011880","'6U86IB"
"100108744","'TUAKEM"
"100109146","'64YPS6"
"100029136","'PX7B39"
"100011748","'NWZP62"
"100012036","'DK5Z9X"
"100109424","'HV8CSC"
"100011896","'RMLJSK"
"100049746","'6D51MR"
"100011777","'3S09A7"
"100074680","'UG4ESX"
"100013535","'BMVUIR"
"100107444","'88F0LU"
"100013542","'GLLE41"
"100107527","'PGN3IV"
"100013347","'S1W859"
"100011979","'HJDART"
"100014007","'3DW4FC"
"100011332","'5TYCEK"
"100013913","'HOG6A2"
"100011991","'MRYCG1"
"100013769","'59VNCN"
"100013308","'F16WJ5"
"100011664","'87GK40"
"100014050","'VPNLHN"
"100011358","'R1A0Z4"
"100013779","'37U5B7"
"100108726","'X7I3O9"
"100011172","'09AXI5"
"100013320","'6MPZ3X"
"100013795","'ZAK45P"
"100011173","'YHIOSQ"
"100013302","'ZXG4OX"
"100013600","'N7XWQI"
"100109095","'G46ZA6"
"100013804","'DXIOMB"
"100013809","'BH56LC"
"100013813","'OCCZIH"
"100049759","'BXABXG"
"100011416","'JWKK0G"
"100011348","'Z5QZW2"
"100011394","'6A8WOW"
"100012777","'HYD1Q9"
"100012567","'HL5JQB"
"100012303","'7AW0GX"
"100012341","'L83OTK"
"100107419","'J53ROK"
"100012330","'WJNOTJ"
"100012857","'MMF9TE"
"100050132","'EAUDL0"
"100107828","'2MFDTH"
"100107834","'6AGFVA"
"100012557","'9C4YZ7"
"100010927","'DD22WV"
"100108099","'PH107J"
"100012331","'FR7HHD"
"100075428","'C3Y71U"
"100108395","'6Z9AVC"
"100012619","'8TYZGG"
"100012176","'XD14XS"
"100010870","'H09S18"
"100075430","'2A0PTO"
"100010871","'QF7PRS"
"100108910","'10POJT"
"100010919","'DDSTKV"
"100012344","'2ESBT9"
"100012340","'OLDCID"
"100010914","'FY3BY2"
"100050183","'4PYQZE"
"100012798","'6P16Y4"
"100109061","'XEH8JV"
"100012214","'KMLNQC"
"100012324","'PH02YH"
"100012342","'YBBMGV"
"100048384","'P0R8VQ"
"100109230","'7OLRI0"
"100012164","'YE4EOW"
"100012350","'ZM46L5"
"100012793","'IUBGTT"
"100011767","'N2VL43"
"100012216","'U2US8A"
"100012128","'CZAKAY"
"100012541","'HET0UN"
"100012719","'7XS58I"
"100107412","'2UANEB"
"100011527","'RT6ADD"
"100012175","'HZ71V1"
"100012721","'1KO8GF"
"100107763","'9CG69V"
"100012808","'YESGD8"
"100107797","'3WSRA0"
"100012609","'GTWDG9"
"100107865","'TYESJ0"
"100029139","'D093JJ"
"100012543","'9WYC54"
"100011886","'FKJDAN"
"100050193","'KX1DH4"
"100012279","'KXCT7Q"
"100108059","'IWA9ZK"
"100108112","'DSZA61"
"100011775","'KFEVEX"
"100012973","'GBIC20"
"100012290","'XN05V0"
"100029074","'YIXVS1"
"100012709","'2SUCDW"
"100050136","'V8VEMI"
"100012132","'HEFGLW"
"100012082","'MR59UK"
"100012291","'FPZPFR"
"100029073","'53OIA4"
"100108492","'DWJIBK"
"100108547","'EQDH32"
"100108580","'KEH4X5"
"100108708","'K6N59P"
"100108810","'4AI9TY"
"100108842","'O6C55C"
"100012728","'7IDLK4"
"100012860","'0F69O6"
"100108863","'EEKUCX"
"100012351","'MB4XS7"
"100011029","'XVBHN7"
"100108986","'XN31P8"
"100011851","'B9ACF2"
"100011709","'TEG1GT"
"100109029","'EB3H2V"
"100049761","'1FAOUG"
"100029067","'I6GLDH"
"100109038","'C5CSHP"
"100109161","'NKWUHX"
"100012201","'4V0WWH"
"100048556","'BEJ9IN"
"100060285","'ZFNWS9"
"100011516","'HZI8XR"
"100109565","'H8PIJU"
"100085999","'V1IPUS"
"100160968","'4927Q0"
"100012594","'XHQ7TQ"
"100012136","'JHLTNI"
"100010835","'FXCIGI"
"100109420","'EI4YPX"
"100107187","'YUZKET"
"100107329","'N26B1Y"
"100010958","'8DDAOH"
"100107413","'O7ELOX"
"100029664","'6MZC8Y"
"100012722","'JHNZOB"
"100011007","'SSXR26"
"100011471","'0YS21Q"
"100107674","'3L9SDX"
"100059409","'E7G92G"
"100107776","'7BULD3"
"100107809","'BS5D1K"
"100012314","'JKS98W"
"100011025","'QBHF53"
"100107989","'928UOF"
"100011026","'LGXJQ1"
"100012561","'9MKPN3"
"100108168","'DSDKMN"
"100010890","'SMCV6I"
"100108297","'KXWLLP"
"100108301","'6EDTQN"
"100108476","'HHOR56"
"100108499","'DMSV12"
"100029146","'4DQA03"
"100012192","'68W2LH"
"100108610","'01ZZMU"
"100108612","'IPDUQ5"
"100108651","'YPTMPY"
"100075001","'WLHMDY"
"100011495","'SG06P1"
"10018784","'UCS7CE"
"100012193","'6TUM4B"
"100108993","'CQFHYH"
"100107778","'0U81HW"
"100109016","'W3JULT"
"100012486","'CGFKUK"
"100109022","'7XS3DU"
"100029056","'GEZUOF"
"100079442","'QFGAGJ"
"100012288","'LW7CM9"
"100109143","'1NEOHE"
"100012799","'979ZLY"
"100010920","'DQO2IH"
"100010844","'6BUIR0"
"100012501","'RA12DM"
"100109503","'8L3N8R"
"100012170","'E6XQPB"
"100012657","'JSILLI"
"100029597","'60AQ8U"
"100012540","'RDDJWW"
"100075008","'3RLZMG"
"100054458","'3BMCT7"
"100005455","'DRV49N"
"100099466","'N3V3KH"
"100099469","'UFI5T4"
"100099486","'E7A249"
"100099510","'XDE86F"
"100099573","'UTEWST"
"100005900","'HRI9E6"
"100099628","'GCTR18"
"100006261","'GYIBZA"
"100006284","'PKDUKI"
"100005504","'9CF5L0"
"100006532","'28RYRZ"
"100099427","'DG1OJV"
"100099428","'UK5D3S"
"100005415","'2LBMZ3"
"100031337","'HIR2XF"
"100005499","'VD20QP"
"100006931","'9VEDEV"
"100100635","'V1QBHV"
"100099403","'HXDZE1"
"100002037","'KK3585"
"100100726","'XS4IJ5"
"100100256","'6XHHE3"
"100100278","'VBU2MF"
"100006216","'N8BCK7"
"100005700","'9JD0B1"
"100107707","'N5ISHA"
"100016517","'1XZHMY"
"100015574","'HK1O9W"
"100016745","'9F8CM3"
"100015562","'0BT90Q"
"100016241","'ONQMWE"
"100015587","'BY9G4C"
"100108592","'8T49U9"
"100017514","'7E6KSC"
"100062368","'ZH3T7X"
"100015590","'RU9SBI"
"100012473","'3PGTAC"
"100015593","'FJDS5W"
"100109544","'DZSYKR"
"100015512","'U1S7I2"
"100017557","'GS1FYR"
"100017028","'S7C8EX"
"100014113","'6GWAP5"
"100014486","'PR4U2Q"
"100108195","'7I3GA4"
"100015828","'22OJEQ"
"100014145","'PJS2ZE"
"100108591","'5J1Y6H"
"100014239","'LM5YBV"
"100108658","'A3OVBS"
"100016926","'WJHPCY"
"100015491","'AETC4A"
"100015511","'3ZDQGE"
"100014142","'DPCHPR"
"100015505","'L25VKE"
"100015452","'PU2W2Q"
"100107253","'125V1G"
"100107652","'FECDZY"
"100015176","'ZQOBZJ"
"100108146","'6M9TWM"
"100015414","'FL929T"
"100068712","'AL2GRS"
"100011310","'YSJ7V6"
"100011937","'QOMDQ8"
"100014021","'BRY3YX"
"100107583","'EGZIUX"
"100013297","'YSF269"
"100107669","'GUTW6J"
"100012453","'R6AV48"
"100013651","'BF9HUU"
"100075068","'YQBZGR"
"100107872","'6Z4Z5N"
"100084653","'13O5OF"
"100011558","'YS8Q00"
"100107944","'Y5M61S"
"100011929","'40ML27"
"100013391","'AKPY2U"
"100108176","'MFF4IE"
"100014048","'JLOKHT"
"100048741","'U9G3CM"
"100013373","'US9RZD"
"100013946","'Z4JS80"
"100108341","'5CKGTO"
"100108343","'NBI93W"
"100108471","'LMRQ58"
"100013919","'VGANWB"
"100011589","'FGSDO0"
"100108645","'NV6K0Z"
"100108661","'4MFDPO"
"100013352","'TC8F8V"
"100014072","'DM3KV8"
"100013961","'A6ISWU"
"100013300","'2NRBZZ"
"100109019","'AZL4QY"
"100029297","'RVOKOF"
"100109077","'JKINDN"
"100013415","'Y0WJMX"
"100013721","'9V8Q4W"
"100013325","'3K5FMN"
"100029033","'OBP4JP"
"100013419","'EVDCFH"
"100109429","'KGZASG"
"100109474","'5IMPRZ"
"100109476","'P6QN62"
"100109494","'9VJ9OR"
"100013324","'DLUBB5"
"100109540","'QEW3FS"
"100013741","'F6PI2R"
"100100919","'OTMCC0"
"100101089","'YG5I0S"
"100010722","'F21RVO"
"100010686","'BXWWL5"
"100061970","'S3MFAV"
"100048682","'9QQO9E"
"100131908","'6IG7IW"
"100131927","'5U88FZ"
"100131964","'R0H09C"
"100132329","'DNX2BL"
"100131987","'CXGB9O"
"100131990","'830RFV"
"100131996","'L761LG"
"100132089","'AQ5YJK"
"100132099","'9CKOXZ"
"100132126","'MZ2U58"
"100132133","'WLWP2B"
"100132253","'F87SFE"
"100132285","'2GTLGW"
"100132287","'ZAJHAC"
"100132291","'3JQKXZ"
"100132303","'6Z1P9Y"
"100101103","'SWBAGG"
"100010166","'ODO2L6"
"100101158","'9D5HL8"
"100101943","'LWK1IU"
"100009110","'85C6AG"
"100009531","'MJ0GVJ"
"100009414","'RQSL63"
"100102294","'CRCOTJ"
"100102187","'OWNOTW"
"100009450","'TIAB8N"
"100009476","'8LPF31"
"100102244","'H9ZJK1"
"100052064","'F38XJE"
"100052053","'VP32F0"
"100009842","'MBN2PZ"
"100102279","'909YVW"
"100078680","'3LB1YZ"
"100004703","'4BWIBK"
"100004728","'NB39E8"
"100004601","'7Q2R2F"
"100004696","'CQAKG3"
"100049024","'LZX0J4"
"100074677","'OKX9FH"
"100107687","'4XCM4C"
"100107991","'4HXCWD"
"100060240","'A32BXZ"
"100009359","'LGNIUX"
"100009374","'C1MNPG"
"100101988","'IK7I1U"
"100101691","'XZK42A"
"100054554","'H31DAE"
"100008474","'WWS4BE"
"100008383","'M20LZM"
"100031553","'WOHKWL"
"100009096","'6NZZFR"
"100008895","'PVM4HC"
"100008120","'9E0JM2"
"100101801","'4NQVYY"
"100101808","'NH8RK0"
"100102235","'AX5GBT"
"100008986","'KXPCK6"
"100008429","'G8O62D"
"100008514","'UY7GLQ"
"100058080","'1VXLVA"
"100060988","'YVSN31"
"100101622","'TTK56X"
"100007984","'OMXN8F"
"100101685","'02RG0B"
"100008567","'5F7G5I"
"100008734","'DF17BJ"
"100008838","'I6NS1Q"
"100008681","'SF9CR5"
"100057637","'TQVVZ2"
"100101740","'6LXVIH"
"100008048","'N2MWCZ"
"100008065","'KF6MNL"
"100008944","'Q2G3NH"
"100008196","'1ZU7JT"
"100008863","'85WFCI"
"100101802","'ZTQL1S"
"100008221","'URZ4XB"
"100101823","'B0YDF4"
"100080518","'SC6Z96"
"100008448","'NO5MEL"
"100009066","'JY2QN0"
"100008846","'PMCKBM"
"100008583","'WSFTHA"
"100009010","'IPYYNJ"
"100006649","'86AK5Y"
"100002916","'GDCWA7"
"100003017","'I34IQF"
"100101207","'91EHUU"
"100101352","'JQESJ2"
"100101360","'MXTFD6"
"100101390","'DVV7NC"
"100100178","'3JDJ46"
"100005236","'9MMU9K"
"100101431","'MDDN2V"
"100003865","'VFWXVK"
"100003397","'7GSXWC"
"100006420","'URN3XN"
"100101479","'GJHJPK"
"100002741","'K61LCA"
"100003614","'VGWNLX"
"100002883","'0AI5W3"
"100002924","'6BDM0P"
"100101539","'EI4ORP"
"100100889","'OWQJIR"
"100050536","'TAG9E5"
"100010181","'Z1WMFG"
"100061988","'34G2N0"
"100010572","'23GS6I"
"100010311","'WMHV7L"
"100031526","'8LXX1P"
"100010321","'50LV38"
"100101020","'MBHX2N"
"100050950","'0P9M45"
"100098473","'AWL4LO"
"100007192","'D7XM3F"
"100098892","'WLWKRM"
"100007236","'OYO6XL"
"100098685","'RZBBGJ"
"100098957","'WUXYBL"
"100007748","'O68FOI"
"100007512","'YHV751"
"100007789","'8DJP8G"
"100053511","'XKUK89"
"100099000","'97S4O5"
"100098797","'MP05VX"
"100099787","'C0AOYV"
"100099933","'ALMB6O"
"100099031","'AQD1O4"
"100099126","'IWWDQN"
"100005013","'ERTVGE"
"100004701","'NR6QLT"
"100099086","'C6Z0CP"
"100098989","'IRJIRY"
"100098451","'Q5XAZN"
"100098454","'GVQ55V"
"100053541","'TYUFBK"
"100098468","'XJO2V1"
"100051004","'A8QLZR"
"100050993","'5RXBWT"
"100053531","'Q8JOSO"
"100007804","'58L8JJ"
"100007674","'7U2F3M"
"100007941","'CHU9ZD"
"100007761","'NHJSVV"
"100098608","'N4B6DA"
"100005804","'D0B0XS"
"100071172","'XNWZNA"
"100099455","'78HN35"
"100007776","'LVAKHF"
"100099488","'YTDU61"
"100078964","'SKYN04"
"100099527","'15F7OY"
"100007011","'9TB3CE"
"100005509","'YIXQQW"
"100099536","'ERAQ20"
"100053522","'5S61B3"
"100050991","'87P1I2"
"100099595","'E22MWC"
"100098750","'MMPN4B"
"100099601","'9G1JKP"
"100029867","'J449VS"
"100007176","'6VM0O9"
"100007807","'KHZEEY"
"100098647","'2I4L15"
"100101710-nonupfront","'74OLMI"
"100077823","'KZ7UII"
"100009800","'Y79VND"
"100009592","'FTYR68"
