[
    {
        "method": "GET", 
        "version_path": "/v1",
        "route_url": "/regions/find",
        "class_method": "AdministrativeRegionController->findAllReport",
        "title": "Get List of Region"
    },
    {
        "method": "POST", 
        "version_path": "/v1",
        "route_url": "/regions/search",
        "class_method": "AdministrativeRegionController->searchRegion",
        "title": "Search Administrative Region"
    },
    {
        "method": "POST", 
        "version_path": "/v1",
        "route_url": "/regions/update",
        "class_method": "AdministrativeRegionController->updateRegions",
        "title": "Update Regions"
    }
]